// Jest Snapshot v1, https://goo.gl/fbAQLP

exports[`PasswordResetForm.tsx should render properly 1`] = `
<Formik
  initialValues={
    Object {
      "password": "",
    }
  }
  onSubmit={[Function]}
  validate={[Function]}
>
  <Component />
</Formik>
`;
