// Jest Snapshot v1, https://goo.gl/fbAQLP

exports[`AddTableForm.tsx should render properly 1`] = `
<Styled(Form)>
  <FormGroup>
    <FormLabel
      column={false}
      srOnly={false}
    >
      Are you sure?
    </FormLabel>
    <styled.div>
      <Styled(Button)
        onClick={[Function]}
      >
        Yes
      </Styled(Button)>
      <Styled(Button)
        onClick={[Function]}
      >
        No
      </Styled(Button)>
    </styled.div>
  </FormGroup>
</Styled(Form)>
`;
