// Jest Snapshot v1, https://goo.gl/fbAQLP

exports[`Header.tsx should render properly 1`] = `
<styled.nav>
  <styled.div>
    <Styled(Link)
      to="/"
    >
      <styled.img
        src="restaurant-logo.jpg"
      />
    </Styled(Link)>
  </styled.div>
  <styled.div>
    <Styled(Link)
      isActive={true}
      to="/"
    >
      Home
    </Styled(Link)>
    <Styled(Link)
      isActive={false}
      to="/tables"
    >
      Tables
    </Styled(Link)>
    <Styled(Link)
      isActive={false}
      to="/contact"
    >
      Contact
    </Styled(Link)>
    <Styled(Link)
      isActive={false}
      to="/about-us"
    >
      About Us
    </Styled(Link)>
    <Styled(Link)
      isActive={false}
      to="/register"
    >
      Register
    </Styled(Link)>
    <Styled(Link)
      isActive={false}
      to="/login"
    >
      Login
    </Styled(Link)>
  </styled.div>
</styled.nav>
`;
