<?xml version="1.0" standalone="no"?>
<!DOCTYPE svg PUBLIC "-//W3C//DTD SVG 20010904//EN"
 "http://www.w3.org/TR/2001/REC-SVG-20010904/DTD/svg10.dtd">
<svg version="1.0" xmlns="http://www.w3.org/2000/svg"
 width="1920.000000pt" height="1200.000000pt" viewBox="0 0 1920.000000 1200.000000"
 preserveAspectRatio="xMidYMid meet">

<g transform="translate(0.000000,1200.000000) scale(0.100000,-0.100000)"
fill="#000000" stroke="none">
<path d="M4788 9993 c-647 -648 -949 -957 -954 -976 -22 -90 54 -166 138 -138
49 16 601 575 647 655 59 102 149 138 263 104 l39 -11 55 54 c114 111 349 379
451 514 200 265 314 487 338 656 7 44 -5 89 -23 89 -4 0 -433 -426 -954 -947z"/>
<path d="M13048 9783 c-647 -648 -949 -957 -954 -976 -22 -90 54 -166 138
-138 49 16 601 575 647 655 59 102 149 138 263 104 l39 -11 55 54 c114 111
349 379 451 514 200 265 314 487 338 656 7 44 -5 89 -23 89 -4 0 -433 -426
-954 -947z"/>
<path d="M5803 10506 c-55 -25 -113 -94 -153 -180 -54 -117 -65 -184 -64 -376
1 -135 5 -179 22 -244 26 -95 70 -174 120 -216 20 -17 47 -40 60 -50 21 -18
22 -25 22 -178 0 -87 -3 -221 -7 -297 l-6 -138 -131 7 c-72 4 -137 13 -144 19
-9 7 -109 16 -256 23 -1077 55 -1039 54 -1067 28 -33 -30 -59 -89 -59 -134 0
-49 31 -114 66 -136 28 -19 35 -19 789 16 462 21 512 25 529 38 6 5 70 13 141
17 l131 7 -4 -104 c-24 -800 -29 -1053 -21 -1083 22 -77 111 -110 162 -59 49
48 49 54 32 619 -8 289 -15 551 -15 581 l0 54 126 0 126 0 47 -43 c50 -44 130
-78 231 -98 37 -7 160 -8 373 -3 292 6 317 8 317 24 0 16 -24 18 -292 25 -161
4 -297 11 -302 15 -5 5 -6 16 -3 24 5 13 28 16 134 17 70 1 135 3 143 4 8 1
84 3 168 4 141 1 152 2 152 19 0 17 -12 20 -107 25 -58 4 -188 7 -287 7 -100
0 -187 4 -194 9 -8 5 -12 17 -10 27 3 18 18 19 208 25 113 3 247 7 298 8 85 1
92 3 92 21 0 19 -7 20 -98 20 -55 0 -188 3 -296 7 -156 5 -199 9 -203 20 -13
34 14 38 305 43 252 4 287 7 290 21 4 22 -89 29 -407 29 -268 0 -325 -7 -423
-49 -26 -11 -68 -39 -93 -62 l-45 -42 -126 6 c-69 3 -127 7 -129 8 -1 2 -5
135 -6 296 l-4 292 67 63 c39 38 77 85 93 118 82 163 88 497 14 695 -26 71
-86 153 -136 188 -49 35 -121 45 -170 23z"/>
<path d="M9500 10437 c-3 -3 -43 -10 -90 -17 -552 -72 -1020 -410 -1254 -905
-130 -273 -186 -603 -147 -869 13 -91 56 -275 75 -326 68 -174 119 -276 189
-380 120 -180 301 -355 489 -473 157 -98 378 -181 568 -212 52 -8 124 -20 160
-26 193 -32 559 41 805 160 489 238 803 671 896 1236 15 92 23 323 11 338 -5
7 -12 43 -16 81 -24 239 -150 545 -315 761 -107 140 -283 299 -431 388 -248
150 -517 230 -820 244 -63 3 -117 3 -120 0z m-60 -549 c-18 -15 -20 -19 -7
-15 32 12 133 20 124 11 -5 -5 -41 -15 -80 -21 -40 -7 -91 -17 -114 -21 -49
-11 -56 -6 -16 9 22 8 24 12 13 19 -27 17 12 35 80 38 l25 1 -25 -21z m-563
-381 c-25 -20 -127 -177 -158 -244 -71 -151 -91 -248 -97 -453 -7 -230 -7
-244 2 -322 5 -46 4 -68 -3 -68 -16 0 -51 38 -51 55 0 8 -4 23 -10 33 -17 31
-39 125 -51 218 -18 147 6 333 65 489 8 22 15 32 16 23 0 -9 -4 -27 -9 -40 -5
-13 -16 -68 -26 -122 -12 -72 -13 -102 -5 -110 14 -14 32 12 24 37 -3 10 -1
23 4 30 5 7 12 26 16 42 8 33 42 107 67 145 8 14 35 61 59 105 44 83 161 226
168 206 2 -7 -3 -18 -11 -24z"/>
<path d="M8536 8802 c-7 -12 6 -92 15 -92 12 0 11 87 0 95 -5 3 -12 2 -15 -3z"/>
<path d="M14153 10426 c-55 -25 -113 -94 -153 -180 -54 -117 -65 -184 -64
-376 1 -135 5 -179 22 -244 26 -95 70 -174 120 -216 20 -17 48 -40 61 -51 l24
-20 -7 -352 c-4 -193 -10 -355 -13 -360 -8 -13 -254 2 -272 16 -8 7 -109 16
-255 23 -1077 55 -1039 54 -1067 28 -33 -30 -59 -89 -59 -134 0 -49 31 -114
66 -136 28 -19 35 -19 789 16 462 21 512 25 529 38 6 5 68 13 139 17 l127 7 0
-69 c-1 -37 -7 -267 -14 -511 -9 -282 -11 -455 -5 -477 22 -77 111 -110 163
-59 48 48 48 62 32 603 -8 278 -13 508 -10 513 3 4 59 8 126 8 l120 0 47 -43
c50 -44 130 -78 231 -98 37 -7 160 -8 373 -3 292 6 317 8 317 24 0 16 -24 18
-292 25 -161 4 -297 11 -302 15 -5 5 -6 16 -3 24 5 13 28 16 134 17 70 1 135
3 143 4 8 1 84 3 168 4 141 1 152 2 152 19 0 17 -12 20 -107 25 -58 4 -188 7
-287 7 -100 0 -187 4 -194 9 -8 5 -12 17 -10 27 3 18 18 19 208 25 113 3 247
7 298 8 85 1 92 3 92 21 0 19 -7 20 -98 20 -55 0 -188 3 -296 7 -156 5 -199 9
-203 20 -13 34 14 38 305 43 252 4 287 7 290 21 4 22 -89 29 -407 29 -268 0
-325 -7 -423 -49 -26 -11 -68 -39 -93 -62 l-45 -42 -120 5 c-66 3 -123 7 -126
10 -8 8 -26 658 -19 694 4 22 23 47 63 82 112 97 162 245 162 483 1 249 -66
438 -187 522 -49 35 -121 45 -170 23z"/>
<path d="M11304 6315 c-144 -31 -263 -96 -381 -209 -134 -128 -213 -263 -259
-445 -123 -485 129 -989 566 -1129 134 -43 237 -51 375 -27 299 52 556 284
655 592 42 131 53 218 47 363 -7 152 -31 248 -96 385 -113 236 -312 403 -555
465 -93 24 -256 26 -352 5z m362 -409 c128 -64 226 -184 270 -331 27 -90 24
-259 -5 -345 -125 -361 -531 -474 -784 -218 -69 70 -119 155 -142 243 -19 76
-19 234 0 309 37 140 137 272 253 334 82 44 121 52 234 48 90 -3 104 -6 174
-40z"/>
<path d="M5570 5415 l0 -895 535 0 535 0 0 170 0 170 -360 0 -360 0 0 185 0
185 305 0 305 0 0 170 0 170 -305 0 -305 0 0 200 0 200 348 2 347 3 3 168 2
167 -525 0 -525 0 0 -895z"/>
<path d="M7190 5415 l0 -895 180 0 180 0 0 311 0 310 37 -3 37 -3 183 -307
183 -308 210 0 c116 0 210 2 210 6 0 3 -88 141 -195 307 -107 166 -194 307
-193 312 0 6 26 19 57 30 144 53 253 172 308 340 23 70 27 96 27 210 0 114 -4
140 -27 211 -63 189 -191 312 -372 359 -48 12 -131 15 -442 15 l-383 0 0 -895z
m738 541 c36 -19 65 -52 93 -106 35 -67 33 -186 -3 -256 -32 -61 -75 -99 -126
-114 -20 -5 -106 -10 -189 -10 l-153 0 0 250 0 250 175 0 c132 0 183 -4 203
-14z"/>
<path d="M8960 5415 l0 -895 180 0 180 0 0 310 0 310 35 0 35 0 183 -307 183
-308 212 -3 c117 -1 212 0 212 2 0 3 -90 145 -200 315 -110 170 -200 312 -200
314 0 3 14 7 30 11 54 10 138 56 191 104 70 62 123 147 156 246 33 104 38 283
10 385 -42 155 -150 298 -267 354 -113 54 -142 57 -557 57 l-383 0 0 -895z
m738 541 c71 -37 116 -127 116 -232 1 -92 -37 -173 -102 -219 l-44 -30 -174
-3 -174 -4 0 251 0 251 175 0 c132 0 183 -4 203 -14z"/>
<path d="M12840 5415 l0 -895 180 0 180 0 0 311 0 310 38 -3 37 -3 184 -307
183 -308 214 0 213 0 -185 287 c-102 158 -192 296 -200 307 -22 32 -17 42 29
55 72 22 134 62 196 125 265 277 191 806 -134 961 -38 18 -94 38 -123 44 -33
7 -196 11 -432 11 l-380 0 0 -895z m739 541 c135 -70 162 -302 48 -420 -55
-58 -89 -66 -274 -66 l-153 0 0 250 0 250 175 0 c134 0 183 -3 204 -14z"/>
<path d="M11236 3680 c-70 -21 -126 -116 -126 -212 0 -38 0 -38 -40 -38 l-40
0 0 -60 0 -60 40 0 40 0 0 -185 0 -185 70 0 70 0 0 185 0 185 45 0 46 0 -3 58
-3 57 -44 3 -43 3 5 46 c6 55 15 65 69 72 l43 6 3 68 3 67 -53 -1 c-29 0 -66
-5 -82 -9z"/>
<path d="M13740 3534 c0 -142 -1 -154 -16 -140 -62 62 -185 52 -256 -21 -68
-70 -90 -161 -64 -264 31 -118 111 -184 219 -177 39 3 67 11 87 26 30 22 30
22 30 2 0 -18 6 -20 70 -20 l70 0 0 375 0 375 -70 0 -70 0 0 -156z m-31 -269
c22 -21 26 -35 26 -81 0 -50 -3 -58 -33 -85 -77 -69 -174 -10 -163 101 4 44
15 63 44 81 41 25 91 19 126 -16z"/>
<path d="M6080 3300 l0 -360 70 0 70 0 0 125 0 125 98 0 c113 0 165 18 204 71
34 46 48 92 48 158 0 84 -17 131 -64 177 -55 55 -91 64 -273 64 l-153 0 0
-360z m320 200 c41 -41 38 -125 -7 -160 -21 -16 -40 -20 -99 -20 l-74 0 0 100
0 100 80 0 c66 0 83 -3 100 -20z"/>
<path d="M10370 3521 l0 -90 -42 -3 -43 -3 -3 -57 -3 -58 46 0 45 0 0 -185 0
-185 65 0 65 0 0 185 0 185 50 0 51 0 -3 58 -3 57 -47 3 -48 3 0 90 0 89 -65
0 -65 0 0 -89z"/>
<path d="M6878 3428 c-90 -24 -168 -134 -168 -239 0 -111 46 -191 135 -234 66
-33 138 -31 185 4 36 26 40 26 40 1 0 -18 7 -20 65 -20 l65 0 0 245 0 245 -65
0 c-64 0 -65 -1 -65 -27 0 -25 -1 -25 -19 -9 -23 21 -87 45 -116 45 -11 -1
-36 -5 -57 -11z m155 -169 c52 -56 35 -151 -32 -179 -66 -27 -136 13 -148 83
-18 111 104 176 180 96z"/>
<path d="M7556 3428 c-59 -16 -130 -90 -150 -157 -20 -69 -20 -113 0 -180 42
-144 223 -210 322 -119 l22 21 0 -26 c0 -15 -7 -45 -16 -67 -18 -45 -55 -70
-105 -70 -38 0 -96 33 -104 60 -6 18 -8 18 -61 -7 -29 -15 -54 -32 -54 -39 0
-22 46 -79 88 -108 35 -25 55 -31 112 -34 119 -7 190 31 237 126 l28 57 3 273
3 272 -65 0 c-65 0 -66 -1 -66 -27 0 -25 -1 -25 -19 -9 -23 21 -87 45 -116 45
-11 -1 -38 -6 -59 -11z m157 -169 c22 -24 27 -38 27 -80 0 -44 -4 -55 -31 -80
-60 -56 -147 -29 -169 51 -8 30 -7 47 3 72 34 81 112 98 170 37z"/>
<path d="M8255 3431 c-161 -42 -234 -230 -147 -384 65 -116 226 -154 339 -80
68 43 70 57 17 97 l-45 35 -32 -20 c-65 -39 -177 -10 -177 47 0 2 73 5 163 6
l162 3 -2 57 c-2 62 -30 138 -66 176 -48 52 -145 81 -212 63z m84 -132 c18 -6
38 -24 47 -40 l15 -29 -96 0 c-52 0 -95 3 -95 8 0 20 34 53 63 61 18 5 32 10
33 10 1 1 15 -4 33 -10z"/>
<path d="M9276 3430 c-16 -5 -41 -21 -57 -36 l-27 -26 -4 28 c-3 29 -4 29 -68
29 l-65 0 -3 -242 -2 -243 70 0 70 0 0 149 c0 135 2 151 21 175 14 18 30 26
50 26 74 0 89 -37 89 -222 l0 -128 66 0 65 0 -3 188 c-3 167 -5 191 -24 227
-33 63 -111 96 -178 75z"/>
<path d="M9829 3425 c-28 -9 -63 -31 -87 -56 -108 -108 -92 -313 31 -396 143
-96 323 -17 358 158 38 191 -126 350 -302 294z m122 -145 c27 -15 49 -62 49
-105 0 -27 -8 -44 -29 -66 -79 -79 -201 11 -157 115 24 58 86 83 137 56z"/>
<path d="M11648 3429 c-59 -17 -123 -81 -148 -147 -41 -106 -14 -220 69 -295
118 -106 303 -55 361 100 24 64 25 112 5 181 -37 122 -166 195 -287 161z m133
-168 c40 -40 41 -105 3 -150 -21 -26 -33 -31 -69 -31 -36 0 -48 5 -69 31 -59
69 -16 179 69 179 27 0 44 -8 66 -29z"/>
<path d="M12990 3424 c-19 -8 -45 -25 -57 -36 l-23 -21 0 31 0 32 -65 0 -65 0
0 -245 0 -245 65 0 65 0 0 123 c1 187 16 227 86 227 23 0 39 -8 53 -26 19 -24
21 -40 21 -175 l0 -149 70 0 70 0 0 155 c0 84 -5 177 -11 205 -13 63 -57 116
-107 130 -48 13 -60 12 -102 -6z"/>
<path d="M12137 3424 c-11 -11 -8 -303 4 -354 31 -134 170 -185 267 -97 l22
20 0 -26 c0 -27 1 -27 65 -27 l65 0 0 245 0 245 -64 0 -64 0 -3 -156 -4 -156
-29 -25 c-23 -19 -36 -23 -60 -19 -57 12 -61 22 -66 194 l-5 157 -60 3 c-34 2
-64 0 -68 -4z"/>
</g>
</svg>
